%YAML 1.1
%TAG !u! tag:unity3d.com,2011:
--- !u!114 &11400000
MonoBehaviour:
  m_ObjectHideFlags: 0
  m_PrefabParentObject: {fileID: 0}
  m_PrefabInternal: {fileID: 0}
  m_GameObject: {fileID: 0}
  m_Enabled: 1
  m_EditorHideFlags: 0
  m_Script: {fileID: 11500000, guid: 0766caa5c154b734d9febd8e79692c02, type: 3}
  m_Name: Level_2-4
  m_EditorClassIdentifier: 
  levelIndex: 4
  levelTitle: Level_2-4
  levelDescription: 
  m_LevelButton: {fileID: 1611681113010790, guid: a4c737fb4a72481489e802cee318ccff,
    type: 2}
  m_ButtonPosition: {x: 211, y: 310}
  m_LevelContent: {fileID: 1140812534907364, guid: 36871ebbaca7f494b94bd8247f4196cb,
    type: 2}
