%YAML 1.1
%TAG !u! tag:unity3d.com,2011:
--- !u!114 &11400000
MonoBehaviour:
  m_ObjectHideFlags: 0
  m_PrefabParentObject: {fileID: 0}
  m_PrefabInternal: {fileID: 0}
  m_GameObject: {fileID: 0}
  m_Enabled: 1
  m_EditorHideFlags: 0
  m_Script: {fileID: 11500000, guid: b09d98b1ff687e34e90f9148c762a0bd, type: 3}
  m_Name: World_2
  m_EditorClassIdentifier: 
  worldIndex: 2
  worldTitle: World 2
  worldDescription: 
  levelDatas:
  - {fileID: 11400000, guid: 1265be6774f4228449f8d27bd1e1b3db, type: 2}
  - {fileID: 11400000, guid: 8a1629489353cc040896152761e89fbb, type: 2}
  - {fileID: 11400000, guid: c2f49d689bf4e0749840251e324cc708, type: 2}
  - {fileID: 11400000, guid: 0511f65fb227b054fb05abbaab340fc9, type: 2}
  - {fileID: 11400000, guid: 5562b182de6671742918fa6db0ff4c9d, type: 2}
